{
  "body": {
    "tracks": {
      "href": "https://api.spotify.com/v1/search?query=album%3Astar&type=track&offset=0&limit=5",
      "items": [
        {
          "album": {
            "album_type": "single",
            "artists": [
              {
                "external_urls": {
                  "spotify": "https://open.spotify.com/artist/6PXS4YHDkKvl1wkIl4V8DL"
                },
                "href": "https://api.spotify.com/v1/artists/6PXS4YHDkKvl1wkIl4V8DL",
                "id": "6PXS4YHDkKvl1wkIl4V8DL",
                "name": "Fetty Wap",
                "type": "artist",
                "uri": "spotify:artist:6PXS4YHDkKvl1wkIl4V8DL"
              }
            ],
            "available_markets": [
              "AR",
              "BG",
              "BO",
              "BR",
              "CA",
              "CL",
              "CO",
              "CR",
              "CY",
              "CZ",
              "DO",
              "EC",
              "EE",
              "GR",
              "GT",
              "HK",
              "HN",
              "HU",
              "ID",
              "LI",
              "LT",
              "LV",
              "MT",
              "MX",
              "MY",
              "NI",
              "PA",
              "PE",
              "PH",
              "PL",
              "PY",
              "SG",
              "SK",
              "SV",
              "TR",
              "TW",
              "US",
              "UY"
            ],
            "external_urls": {
              "spotify": "https://open.spotify.com/album/5E7m9SaVOTdIoPyaOgx0Rt"
            },
            "href": "https://api.spotify.com/v1/albums/5E7m9SaVOTdIoPyaOgx0Rt",
            "id": "5E7m9SaVOTdIoPyaOgx0Rt",
            "images": [
              {
                "height": 640,
                "url": "https://i.scdn.co/image/f8158ebf239013ac9785243ccf274cc7a308f345",
                "width": 640
              },
              {
                "height": 300,
                "url": "https://i.scdn.co/image/d8d135ebcb1e9bb5d34373afc818c7cb700e311d",
                "width": 300
              },
              {
                "height": 64,
                "url": "https://i.scdn.co/image/7bd74fd20c2bf746e6cc95155fffc4a30adc0e64",
                "width": 64
              }
            ],
            "name": "Like A Star (feat. Nicki Minaj)",
            "type": "album",
            "uri": "spotify:album:5E7m9SaVOTdIoPyaOgx0Rt"
          },
          "artists": [
            {
              "external_urls": {
                "spotify": "https://open.spotify.com/artist/6PXS4YHDkKvl1wkIl4V8DL"
              },
              "href": "https://api.spotify.com/v1/artists/6PXS4YHDkKvl1wkIl4V8DL",
              "id": "6PXS4YHDkKvl1wkIl4V8DL",
              "name": "Fetty Wap",
              "type": "artist",
              "uri": "spotify:artist:6PXS4YHDkKvl1wkIl4V8DL"
            },
            {
              "external_urls": {
                "spotify": "https://open.spotify.com/artist/0hCNtLu0JehylgoiP8L4Gh"
              },
              "href": "https://api.spotify.com/v1/artists/0hCNtLu0JehylgoiP8L4Gh",
              "id": "0hCNtLu0JehylgoiP8L4Gh",
              "name": "Nicki Minaj",
              "type": "artist",
              "uri": "spotify:artist:0hCNtLu0JehylgoiP8L4Gh"
            }
          ],
          "available_markets": [
            "AR",
            "BG",
            "BO",
            "BR",
            "CA",
            "CL",
            "CO",
            "CR",
            "CY",
            "CZ",
            "DO",
            "EC",
            "EE",
            "GR",
            "GT",
            "HK",
            "HN",
            "HU",
            "ID",
            "LI",
            "LT",
            "LV",
            "MT",
            "MX",
            "MY",
            "NI",
            "PA",
            "PE",
            "PH",
            "PL",
            "PY",
            "SG",
            "SK",
            "SV",
            "TR",
            "TW",
            "US",
            "UY"
          ],
          "disc_number": 1,
          "duration_ms": 191143,
          "explicit": true,
          "external_ids": {
            "isrc": "QMCE31600828"
          },
          "external_urls": {
            "spotify": "https://open.spotify.com/track/0VFXJrXtfuX2iqlnXpl4zD"
          },
          "href": "https://api.spotify.com/v1/tracks/0VFXJrXtfuX2iqlnXpl4zD",
          "id": "0VFXJrXtfuX2iqlnXpl4zD",
          "name": "Like A Star (feat. Nicki Minaj)",
          "popularity": 64,
          "preview_url": "https://p.scdn.co/mp3-preview/dee7722c10d2b1117d3f262ec6e0d709352f2c58?cid=null",
          "track_number": 1,
          "type": "track",
          "uri": "spotify:track:0VFXJrXtfuX2iqlnXpl4zD"
        },
        {
          "album": {
            "album_type": "album",
            "artists": [
              {
                "external_urls": {
                  "spotify": "https://open.spotify.com/artist/6UKDgKJpv0MCwiQHbllkfR"
                },
                "href": "https://api.spotify.com/v1/artists/6UKDgKJpv0MCwiQHbllkfR",
                "id": "6UKDgKJpv0MCwiQHbllkfR",
                "name": "Star Cast",
                "type": "artist",
                "uri": "spotify:artist:6UKDgKJpv0MCwiQHbllkfR"
              }
            ],
            "available_markets": [
              "CA",
              "MX",
              "US"
            ],
            "external_urls": {
              "spotify": "https://open.spotify.com/album/6X7KgsZnLQX1UyoJnsT7NK"
            },
            "href": "https://api.spotify.com/v1/albums/6X7KgsZnLQX1UyoJnsT7NK",
            "id": "6X7KgsZnLQX1UyoJnsT7NK",
            "images": [
              {
                "height": 640,
                "url": "https://i.scdn.co/image/b5440ebf44d7a5d88b9a7dd33ac4424ef449a0fc",
                "width": 640
              },
              {
                "height": 300,
                "url": "https://i.scdn.co/image/99a3d956a0c774b7b894694790ad0122fcb83159",
                "width": 300
              },
              {
                "height": 64,
                "url": "https://i.scdn.co/image/a78a681a35c1bbf6a3c45703ce73e6d3d415af9e",
                "width": 64
              }
            ],
            "name": "Star Premiere",
            "type": "album",
            "uri": "spotify:album:6X7KgsZnLQX1UyoJnsT7NK"
          },
          "artists": [
            {
              "external_urls": {
                "spotify": "https://open.spotify.com/artist/6UKDgKJpv0MCwiQHbllkfR"
              },
              "href": "https://api.spotify.com/v1/artists/6UKDgKJpv0MCwiQHbllkfR",
              "id": "6UKDgKJpv0MCwiQHbllkfR",
              "name": "Star Cast",
              "type": "artist",
              "uri": "spotify:artist:6UKDgKJpv0MCwiQHbllkfR"
            },
            {
              "external_urls": {
                "spotify": "https://open.spotify.com/artist/2YCzuHuE3bAycNDV6sJDo8"
              },
              "href": "https://api.spotify.com/v1/artists/2YCzuHuE3bAycNDV6sJDo8",
              "id": "2YCzuHuE3bAycNDV6sJDo8",
              "name": "Jude Demorest",
              "type": "artist",
              "uri": "spotify:artist:2YCzuHuE3bAycNDV6sJDo8"
            }
          ],
          "available_markets": [
            "CA",
            "MX",
            "US"
          ],
          "disc_number": 1,
          "duration_ms": 208146,
          "explicit": false,
          "external_ids": {
            "isrc": "USUG11601434"
          },
          "external_urls": {
            "spotify": "https://open.spotify.com/track/55O7xlBqJH3FO8WdBNbs74"
          },
          "href": "https://api.spotify.com/v1/tracks/55O7xlBqJH3FO8WdBNbs74",
          "id": "55O7xlBqJH3FO8WdBNbs74",
          "name": "I Bring Me",
          "popularity": 57,
          "preview_url": "https://p.scdn.co/mp3-preview/27f1cef4769e1879aee4fb8b16d29fdafe817108?cid=null",
          "track_number": 4,
          "type": "track",
          "uri": "spotify:track:55O7xlBqJH3FO8WdBNbs74"
        },
        {
          "album": {
            "album_type": "album",
            "artists": [
              {
                "external_urls": {
                  "spotify": "https://open.spotify.com/artist/0awl5piYwO0CDTHEkCjUhn"
                },
                "href": "https://api.spotify.com/v1/artists/0awl5piYwO0CDTHEkCjUhn",
                "id": "0awl5piYwO0CDTHEkCjUhn",
                "name": "Nico & Vinz",
                "type": "artist",
                "uri": "spotify:artist:0awl5piYwO0CDTHEkCjUhn"
              }
            ],
            "available_markets": [
              "AD",
              "AR",
              "AT",
              "AU",
              "BE",
              "BG",
              "BO",
              "BR",
              "CA",
              "CH",
              "CL",
              "CO",
              "CR",
              "CY",
              "CZ",
              "DE",
              "DK",
              "DO",
              "EC",
              "EE",
              "ES",
              "FI",
              "FR",
              "GB",
              "GR",
              "GT",
              "HK",
              "HN",
              "HU",
              "ID",
              "IE",
              "IS",
              "IT",
              "JP",
              "LT",
              "LU",
              "LV",
              "MC",
              "MT",
              "MX",
              "MY",
              "NI",
              "NL",
              "NO",
              "NZ",
              "PA",
              "PE",
              "PH",
              "PL",
              "PT",
              "PY",
              "SE",
              "SG",
              "SK",
              "SV",
              "TR",
              "TW",
              "US",
              "UY"
            ],
            "external_urls": {
              "spotify": "https://open.spotify.com/album/6zXb9FQMzawvY2Au8Kxky3"
            },
            "href": "https://api.spotify.com/v1/albums/6zXb9FQMzawvY2Au8Kxky3",
            "id": "6zXb9FQMzawvY2Au8Kxky3",
            "images": [
              {
                "height": 640,
                "url": "https://i.scdn.co/image/7be15a6592345a1935161223885ecb53d4e4d58e",
                "width": 640
              },
              {
                "height": 300,
                "url": "https://i.scdn.co/image/908a51bc2eae732f39045a1515633da8332ea962",
                "width": 300
              },
              {
                "height": 64,
                "url": "https://i.scdn.co/image/a8b868846b2432bd787fab731df7a4541603c621",
                "width": 64
              }
            ],
            "name": "Black Star Elephant",
            "type": "album",
            "uri": "spotify:album:6zXb9FQMzawvY2Au8Kxky3"
          },
          "artists": [
            {
              "external_urls": {
                "spotify": "https://open.spotify.com/artist/0awl5piYwO0CDTHEkCjUhn"
              },
              "href": "https://api.spotify.com/v1/artists/0awl5piYwO0CDTHEkCjUhn",
              "id": "0awl5piYwO0CDTHEkCjUhn",
              "name": "Nico & Vinz",
              "type": "artist",
              "uri": "spotify:artist:0awl5piYwO0CDTHEkCjUhn"
            }
          ],
          "available_markets": [
            "AD",
            "AR",
            "AT",
            "AU",
            "BE",
            "BG",
            "BO",
            "BR",
            "CA",
            "CH",
            "CL",
            "CO",
            "CR",
            "CY",
            "CZ",
            "DE",
            "DK",
            "DO",
            "EC",
            "EE",
            "ES",
            "FI",
            "FR",
            "GB",
            "GR",
            "GT",
            "HK",
            "HN",
            "HU",
            "ID",
            "IE",
            "IS",
            "IT",
            "JP",
            "LT",
            "LU",
            "LV",
            "MC",
            "MT",
            "MX",
            "MY",
            "NI",
            "NL",
            "NO",
            "NZ",
            "PA",
            "PE",
            "PH",
            "PL",
            "PT",
            "PY",
            "SE",
            "SG",
            "SK",
            "SV",
            "TR",
            "TW",
            "US",
            "UY"
          ],
          "disc_number": 1,
          "duration_ms": 247520,
          "explicit": false,
          "external_ids": {
            "isrc": "USWB11304681"
          },
          "external_urls": {
            "spotify": "https://open.spotify.com/track/1fidCEsYlaVE3pHwKCvpFZ"
          },
          "href": "https://api.spotify.com/v1/tracks/1fidCEsYlaVE3pHwKCvpFZ",
          "id": "1fidCEsYlaVE3pHwKCvpFZ",
          "name": "Am I Wrong",
          "popularity": 66,
          "preview_url": "https://p.scdn.co/mp3-preview/9ecf91e6cfd4a85b9f9600772bf6d224e051e052?cid=null",
          "track_number": 2,
          "type": "track",
          "uri": "spotify:track:1fidCEsYlaVE3pHwKCvpFZ"
        },
        {
          "album": {
            "album_type": "album",
            "artists": [
              {
                "external_urls": {
                  "spotify": "https://open.spotify.com/artist/6UKDgKJpv0MCwiQHbllkfR"
                },
                "href": "https://api.spotify.com/v1/artists/6UKDgKJpv0MCwiQHbllkfR",
                "id": "6UKDgKJpv0MCwiQHbllkfR",
                "name": "Star Cast",
                "type": "artist",
                "uri": "spotify:artist:6UKDgKJpv0MCwiQHbllkfR"
              }
            ],
            "available_markets": [
              "CA",
              "MX",
              "US"
            ],
            "external_urls": {
              "spotify": "https://open.spotify.com/album/6X7KgsZnLQX1UyoJnsT7NK"
            },
            "href": "https://api.spotify.com/v1/albums/6X7KgsZnLQX1UyoJnsT7NK",
            "id": "6X7KgsZnLQX1UyoJnsT7NK",
            "images": [
              {
                "height": 640,
                "url": "https://i.scdn.co/image/b5440ebf44d7a5d88b9a7dd33ac4424ef449a0fc",
                "width": 640
              },
              {
                "height": 300,
                "url": "https://i.scdn.co/image/99a3d956a0c774b7b894694790ad0122fcb83159",
                "width": 300
              },
              {
                "height": 64,
                "url": "https://i.scdn.co/image/a78a681a35c1bbf6a3c45703ce73e6d3d415af9e",
                "width": 64
              }
            ],
            "name": "Star Premiere",
            "type": "album",
            "uri": "spotify:album:6X7KgsZnLQX1UyoJnsT7NK"
          },
          "artists": [
            {
              "external_urls": {
                "spotify": "https://open.spotify.com/artist/6UKDgKJpv0MCwiQHbllkfR"
              },
              "href": "https://api.spotify.com/v1/artists/6UKDgKJpv0MCwiQHbllkfR",
              "id": "6UKDgKJpv0MCwiQHbllkfR",
              "name": "Star Cast",
              "type": "artist",
              "uri": "spotify:artist:6UKDgKJpv0MCwiQHbllkfR"
            }
          ],
          "available_markets": [
            "CA",
            "MX",
            "US"
          ],
          "disc_number": 1,
          "duration_ms": 211880,
          "explicit": false,
          "external_ids": {
            "isrc": "USUG11601432"
          },
          "external_urls": {
            "spotify": "https://open.spotify.com/track/2ekNI98UsF0t2NtUjRzp3j"
          },
          "href": "https://api.spotify.com/v1/tracks/2ekNI98UsF0t2NtUjRzp3j",
          "id": "2ekNI98UsF0t2NtUjRzp3j",
          "name": "I Can Be",
          "popularity": 52,
          "preview_url": "https://p.scdn.co/mp3-preview/59cb1493d99862460a60ae1011d3aee54127c270?cid=null",
          "track_number": 1,
          "type": "track",
          "uri": "spotify:track:2ekNI98UsF0t2NtUjRzp3j"
        },
        {
          "album": {
            "album_type": "album",
            "artists": [
              {
                "external_urls": {
                  "spotify": "https://open.spotify.com/artist/2iEvnFsWxR0Syqu2JNopAd"
                },
                "href": "https://api.spotify.com/v1/artists/2iEvnFsWxR0Syqu2JNopAd",
                "id": "2iEvnFsWxR0Syqu2JNopAd",
                "name": "Smash Mouth",
                "type": "artist",
                "uri": "spotify:artist:2iEvnFsWxR0Syqu2JNopAd"
              }
            ],
            "available_markets": [
              "CA",
              "MX",
              "US"
            ],
            "external_urls": {
              "spotify": "https://open.spotify.com/album/2UQrm3KoMSJ16a2PTUlx2E"
            },
            "href": "https://api.spotify.com/v1/albums/2UQrm3KoMSJ16a2PTUlx2E",
            "id": "2UQrm3KoMSJ16a2PTUlx2E",
            "images": [
              {
                "height": 635,
                "url": "https://i.scdn.co/image/47006f7fe178be2344dccd7800fd2893dd32eecf",
                "width": 640
              },
              {
                "height": 298,
                "url": "https://i.scdn.co/image/9a0e1a8eda52bbae6b90e0cc960504327b73b72d",
                "width": 300
              },
              {
                "height": 64,
                "url": "https://i.scdn.co/image/b3fc81a516d5eceb2ee8cfafca1f2f00ec30672e",
                "width": 64
              }
            ],
            "name": "All Star Smash Hits",
            "type": "album",
            "uri": "spotify:album:2UQrm3KoMSJ16a2PTUlx2E"
          },
          "artists": [
            {
              "external_urls": {
                "spotify": "https://open.spotify.com/artist/2iEvnFsWxR0Syqu2JNopAd"
              },
              "href": "https://api.spotify.com/v1/artists/2iEvnFsWxR0Syqu2JNopAd",
              "id": "2iEvnFsWxR0Syqu2JNopAd",
              "name": "Smash Mouth",
              "type": "artist",
              "uri": "spotify:artist:2iEvnFsWxR0Syqu2JNopAd"
            }
          ],
          "available_markets": [
            "CA",
            "MX",
            "US"
          ],
          "disc_number": 1,
          "duration_ms": 206413,
          "explicit": false,
          "external_ids": {
            "isrc": "USIR19701434"
          },
          "external_urls": {
            "spotify": "https://open.spotify.com/track/2JAf4C2jcUAGixxywJEUvm"
          },
          "href": "https://api.spotify.com/v1/tracks/2JAf4C2jcUAGixxywJEUvm",
          "id": "2JAf4C2jcUAGixxywJEUvm",
          "name": "Walkin' On The Sun",
          "popularity": 54,
          "preview_url": "https://p.scdn.co/mp3-preview/eed86df9107256b83013adadda24959038b3f37d?cid=null",
          "track_number": 2,
          "type": "track",
          "uri": "spotify:track:2JAf4C2jcUAGixxywJEUvm"
        }
      ],
      "limit": 5,
      "next": "https://api.spotify.com/v1/search?query=album%3Astar&type=track&offset=5&limit=5",
      "offset": 0,
      "previous": null,
      "total": 60765
    }
  },
  "headers": {
    "server": "nginx",
    "date": "Sun, 19 Feb 2017 09:37:51 GMT",
    "content-type": "application/json; charset=utf-8",
    "transfer-encoding": "chunked",
    "connection": "close",
    "cache-control": "public, max-age=7200",
    "access-control-allow-origin": "*",
    "access-control-allow-methods": "GET, POST, OPTIONS, PUT, DELETE",
    "access-control-allow-credentials": "true",
    "access-control-max-age": "604800",
    "access-control-allow-headers": "Accept, Authorization, Origin, Content-Type",
    "content-encoding": "gzip",
    "x-content-type-options": "nosniff",
    "strict-transport-security": "max-age=31536000;"
  },
  "statusCode": 200
}